{
  "connection": "default",
  "collectionName": "designspecs",
  "info": {
    "name": "designspecs",
    "description": ""
  },
  "options": {
    "timestamps": true
  },
  "attributes": {
    "name": {
      "default": "",
      "type": "string"
    },
    "tag": {
      "default": "",
      "type": "string"
    },
    "xdSpecs": {
      "default": "",
      "type": "string"
    },
    "xdBackup": {
      "default": "",
      "type": "string"
    },
    "trello": {
      "default": "",
      "type": "string"
    },
    "documentDescription": {
      "default": "",
      "type": "text"
    },
    "date": {
      "default": "",
      "type": "date"
    }
  }
}