{
  "routes": [
    {
      "method": "GET",
      "path": "/applications",
      "handler": "Application.find",
      "config": {
        "policies": []
      }
    },
    {
      "method": "GET",
      "path": "/applications/count",
      "handler": "Application.count",
      "config": {
        "policies": []
      }
    },
    {
      "method": "GET",
      "path": "/applications/:_id",
      "handler": "Application.findOne",
      "config": {
        "policies": []
      }
    },
    {
      "method": "POST",
      "path": "/applications",
      "handler": "Application.create",
      "config": {
        "policies": []
      }
    },
    {
      "method": "PUT",
      "path": "/applications/:_id",
      "handler": "Application.update",
      "config": {
        "policies": []
      }
    },
    {
      "method": "DELETE",
      "path": "/applications/:_id",
      "handler": "Application.destroy",
      "config": {
        "policies": []
      }
    }
  ]
}